Crosspoint listing for C:\Users\AnthonyDellAnno\Documents\BitBucketRepos\crestron_exam_simpl\Residences\Source\Residences.SMW

Note:  Crosspoint symbols with EquipID or ControlID set to 0d are not routeable.

Equipment Crosspoint Routing.                                                                       EquipID
===========================================================================================================
S-6.1                                                                                               20
S-6.2                                                                                               21
S-6.3                                                                                               22
S-6.4                                                                                               23

Control Crosspoint Routing.                                                                         ControlID
=============================================================================================================
S-6.6.6                                                                                             10
S-6.7.6                                                                                             11
S-6.8.6                                                                                             12
S-6.9.6                                                                                             13

